Base: autos (7 grupos)
FILE 1 - POR EXECUÇÃO
========================================================
#GROUPS	EXECUTION	DB	RAND	SILLHOUETTE
5	1	1892.0543045289573	0.08951447399864614	0.4180854866955084
5	2	1850.6443690203253	0.1042920481236747	0.5087881460653798
5	3	1887.7568245574287	0.09113450725230961	0.4575146885644934
5	4	1864.7726576039884	0.10543616839516128	0.4859099075594137
5	5	1707.9834578058035	0.10475874557959543	0.5018476378435878
5	6	3599.408509098003	0.10367466941605791	0.4348279337714758
5	7	1844.4726979647176	0.1026245112022566	0.5290940274474741
5	8	2342.0107048483387	0.10479413516902379	0.4111042240351272
5	9	1820.3439358276903	0.09788743474116217	0.4543788591421533
5	10	2163.719630295836	0.1075431618666261	0.4748729307436954
========================================================

FILE 2 - SUMMARY
========================================================
5.820766091346741E-11 
6	1707.9834578058035	0.1075431618666261	0.5290940274474741
6	3599.408509098003	0.08951447399864614	0.4111042240351272
-	2097.316709155109	0.10116598557445138	0.467642384186831
-	559.1422643429107	0.006238807456378397	0.03948697378038875
========================================================


FILE 1 - POR EXECUÇÃO
========================================================
#GROUPS	EXECUTION	DB	RAND	SILLHOUETTE
6	1	6242.3454672298785	0.09808023870202379	0.42806888464237813
6	2	2159.420696462136	0.09354125305119335	0.4850959746895551
6	3	2467.715286320406	0.10221664940191687	0.4760455355638844
6	4	1610.83801560398	0.10169543460004564	0.5220381747515664
6	5	1702.1463960318238	0.1107752237013998	0.4322833718004492
6	6	1671.5865847029145	0.09247333649770097	0.4811477438505464
6	7	2153.3341931233394	0.09709055335892987	0.49019799416525833
6	8	19317.761668596104	0.08749842224901427	0.37836896708530254
6	9	1620.181963082723	0.09522847268255455	0.5176020538553846
6	10	48435.87522730705	0.09985077709887255	0.14143341447397692
========================================================

FILE 2 - SUMMARY
========================================================
0.0 
7	1610.83801560398	0.1107752237013998	0.5220381747515664
5	48435.87522730705	0.08749842224901427	0.14143341447397692
-	8738.120549846037	0.09784503613436515	0.4352282114878302
-	14984.918906877992	0.006386186583823207	0.11215704877429442
========================================================


FILE 1 - POR EXECUÇÃO
========================================================
#GROUPS	EXECUTION	DB	RAND	SILLHOUETTE
7	1	1826.753096997672	0.09567276177680077	0.4684306992174108
7	2	1777.023564784199	0.09906311737675476	0.4570249952362356
7	3	1652.2891937709267	0.09414795704561253	0.47351442897568463
7	4	1599.3881258172719	0.06653110035803683	0.4519959915798233
7	5	2637.13549865639	0.0987812021158072	0.4587637675989314
7	6	6652.543261112546	0.0965454291041604	0.3804098563656693
7	7	1658.6744771520443	0.08911646325739252	0.49055761161590017
7	8	1710.866311494962	0.10290711529346085	0.4404478845584626
7	9	1847.253463983969	0.09743583310117716	0.473925885418714
7	10	1740.565498519946	0.09625922634138041	0.4507650917618126
========================================================

FILE 2 - SUMMARY
========================================================
5.820766091346741E-11 
8	1599.3881258172719	0.10290711529346085	0.49055761161590017
8	6652.543261112546	0.06653110035803683	0.3804098563656693
-	2310.2492492289925	0.09364602057705836	0.4545836212328644
-	1554.2564960443854	0.01017172772261041	0.02974828769961264
========================================================


FILE 1 - POR EXECUÇÃO
========================================================
#GROUPS	EXECUTION	DB	RAND	SILLHOUETTE
8	1	1611.5352847070963	0.09266202624892884	0.42454279021386643
8	2	1563.8698803213929	0.09482192910081663	0.4629968389922122
8	3	1664.0262142205293	0.07026424626191949	0.34618523920012406
8	4	2250.747991423637	0.09999485038793102	0.38253171379461626
8	5	5169.232291998675	0.08541329297611319	0.3755593010057708
8	6	1551.282240318624	0.07265694597619432	0.43526965883515156
8	7	1735.1321428971548	0.07848379196640745	0.44575690497476284
8	8	1692.984375827917	0.09804413552071267	0.34339157204632265
8	9	2114.685475558538	0.10163793618575313	0.3818444064566934
8	10	2629.8492957206145	0.09048038062504785	0.39266787405259773
========================================================

FILE 2 - SUMMARY
========================================================
4.0745362639427185E-10 
9	1551.282240318624	0.10163793618575313	0.4629968389922122
8	5169.232291998675	0.07026424626191949	0.34339157204632265
-	2198.334519299418	0.08844595352498245	0.39907462995721177
-	1102.681522377339	0.011305881859448202	0.04121279116161998
========================================================


FILE 1 - POR EXECUÇÃO
========================================================
#GROUPS	EXECUTION	DB	RAND	SILLHOUETTE
9	1	1636.3791699985745	0.08320894832203357	0.40939532238070697
9	2	2414.334851136441	0.06062450025323596	0.3994875794382622
9	3	1804.6497693336532	0.10510239306211859	0.40667280478709217
9	4	1596.3991590734847	0.08595677616895427	0.4284493617180748
9	5	1616.4478405772993	0.10033351290395354	0.3953289347851235
9	6	1714.307347817667	0.09620187257099942	0.3982726326165645
9	7	1795.284556059602	0.10409018614987617	0.3885663407287853
9	8	1750.5372705337036	0.10447516191275655	0.3935478550606822
9	9	1980.371258639255	0.10089858956298525	0.4214986701936818
9	10	1901.8455187390925	0.10683752566178675	0.41307006060741713
========================================================

FILE 2 - SUMMARY
========================================================
1.1641532182693481E-10 
10	1596.3991590734847	0.10683752566178675	0.4284493617180748
9	2414.334851136441	0.06062450025323596	0.3885663407287853
-	1821.0556741908772	0.09477294665687	0.40542895623163905
-	242.1272203410244	0.01445778529550333	0.012814367791475852
========================================================


Base: sonar (2 grupos)
FILE 1 - POR EXECUÇÃO
========================================================
#GROUPS	EXECUTION	DB	RAND	SILLHOUETTE
2	1	11.488294888645713	0.004907742519227063	0.14704870586419697
2	2	9.368596453383267	0.013354244613034593	0.24840204260315993
2	3	10.448550569010598	-0.0035831661647445115	0.19578652363354618
2	4	11.920016882946605	3.3280913671774904E-4	0.1672756031672197
2	5	11.914105631857216	0.003839089032213976	0.1276528433385675
2	6	9.211086554319513	0.014564325026599963	0.2549046451074009
2	7	14.117583699715661	0.00219852254375688	0.11227890076773743
2	8	9.05077589303383	0.014564325026599963	0.26871318600283084
2	9	8.74655188401532	0.015965150899332977	0.3160752273587784
2	10	9.681656192638288	0.010115069623636879	0.23716325015869502
========================================================

FILE 2 - SUMMARY
========================================================
0.0 
3	8.74655188401532	0.015965150899332977	0.3160752273587784
3	14.117583699715661	-0.0035831661647445115	0.11227890076773743
-	10.5947218649566	0.0076258112256375535	0.20753009280021328
-	1.7249346291857686	0.006951047632295015	0.06764934401871789
========================================================


FILE 1 - POR EXECUÇÃO
========================================================
#GROUPS	EXECUTION	DB	RAND	SILLHOUETTE
3	1	10.25037465911037	-0.002319995278855042	0.14542418817272956
3	2	9.889761268669012	-0.004925760897489501	0.17018581083482914
3	3	9.199602047523562	-0.0028746025058198	0.14320845138741123
3	4	9.28672528623181	-0.0051011721558661145	0.33397091139426244
3	5	9.636784428423798	-8.343061812794058E-4	0.18378259109639927
3	6	10.853506183244313	-0.00529766536103498	0.12503658175401605
3	7	9.815143674300144	-0.004173891616163532	0.1784039186205214
3	8	8.67234696399267	-0.004169835196075189	0.36385481014488485
3	9	8.612850054335826	-0.0033370499132242305	0.36233132261529033
3	10	8.853456614890328	-0.004451659971421622	0.3497035904338433
========================================================

FILE 2 - SUMMARY
========================================================
2.2737367544323206E-13 
4	8.612850054335826	-8.343061812794058E-4	0.36385481014488485
4	10.853506183244313	-0.00529766536103498	0.12503658175401605
-	9.507055118072184	-0.0037485939077229412	0.23559021764541876
-	0.721901092670417	0.0014116433719158624	0.10237956911055839
========================================================


FILE 1 - POR EXECUÇÃO
========================================================
#GROUPS	EXECUTION	DB	RAND	SILLHOUETTE
4	1	10.802034269865626	0.04186135618025213	0.18249472422025043
4	2	10.19518106150549	0.018453303661525332	0.298628886178012
4	3	9.648483318658794	0.052642185381671196	0.2618790338263871
4	4	9.68645878176929	-0.0020561316002945603	0.29553643957567133
4	5	9.745591482015152	0.048653235979731105	0.2840844331219535
4	6	10.154634322547722	0.01659491573813853	0.2922790420660742
4	7	10.372563877243717	0.01167790486329734	0.10608868541813528
4	8	9.935652706893721	0.06713595346183174	0.28057199883719175
4	9	9.944735578885256	0.04270921697032577	0.2097750455408492
4	10	11.155201851587195	0.006002117815674405	0.09516758963876522
========================================================

FILE 2 - SUMMARY
========================================================
0.0 
5	9.648483318658794	0.06713595346183174	0.298628886178012
5	11.155201851587195	-0.0020561316002945603	0.09516758963876522
-	10.164053725097197	0.0303674058452153	0.230650587842329
-	0.49477444929303266	0.02307661750652614	0.07858322828609386
========================================================


FILE 1 - POR EXECUÇÃO
========================================================
#GROUPS	EXECUTION	DB	RAND	SILLHOUETTE
5	1	9.980056697217647	0.03310071247351634	0.10617025081501734
5	2	10.33900017095059	0.04129090710348045	0.2642792575960224
5	3	9.638742966578208	0.03366242154586407	0.24039013193753242
5	4	10.957903509588776	0.04285365196510809	0.23704957769566792
5	5	10.22403197335918	0.03729952538367122	0.23129131053034527
5	6	9.488856610300338	0.048346128858976795	0.24543375988521166
5	7	9.2367876755182	0.0389947059968422	0.18737360741293255
5	8	10.03105357525479	0.04909231978914475	0.26069423077631354
5	9	10.31916672999055	0.016303614288601342	0.27381907129414945
5	10	9.665740473516005	0.058372218442010314	0.2499126978122779
========================================================

FILE 2 - SUMMARY
========================================================
0.0 
6	9.2367876755182	0.058372218442010314	0.27381907129414945
6	10.957903509588776	0.016303614288601342	0.10617025081501734
-	9.988134038227427	0.03993162058472156	0.229641389575547
-	0.5022735772794408	0.011339295068272425	0.04941983382297356
========================================================


Base: glass (7 grupos)
FILE 1 - POR EXECUÇÃO
========================================================
#GROUPS	EXECUTION	DB	RAND	SILLHOUETTE
5	1	4.292386320411877	0.2447701484779438	0.46223522816367607
5	2	4.993514317856791	0.24928498275447156	0.404955801462737
5	3	13.119811564876352	0.2600081968287586	0.18964115513596624
5	4	4.434050102120156	0.24053264087815307	0.4634434514999585
5	5	14.288304944275763	0.2646388435356067	0.1483122070847448
5	6	4.748424327778508	0.23840331988689278	0.34241827194459257
5	7	4.865869303877973	0.2666294495736028	0.38103431541860516
5	8	4.302593983524733	0.24859027212873255	0.48806460556741366
5	9	11.754692116460774	0.23117202039995557	0.2975891470425072
5	10	5.8584288844466235	0.27109468837212136	0.41390446317244883
========================================================

FILE 2 - SUMMARY
========================================================
0.0 
6	4.292386320411877	0.27109468837212136	0.48806460556741366
6	14.288304944275763	0.23117202039995557	0.1483122070847448
-	7.265807586562954	0.25151245628362384	0.35915986464926497
-	4.063613459257927	0.013422889231313273	0.11592781352692294
========================================================


FILE 1 - POR EXECUÇÃO
========================================================
#GROUPS	EXECUTION	DB	RAND	SILLHOUETTE
6	1	7.857065025657881	0.24756504064363313	0.29776398699022816
6	2	3.9081783832512675	0.21496090178016083	0.32086898144178716
6	3	8.943392642619488	0.25039935398796265	0.06954287960777897
6	4	6.503577604600474	0.2145382088786999	0.1860740736073784
6	5	4.822997762656605	0.2627033561698486	0.2891219060607043
6	6	6.264140840816348	0.25178788875596464	0.1898706949400333
6	7	5.582773400647241	0.26327409219964476	0.3236664525184188
6	8	3.9828741869120514	0.24802510521952248	0.36907948034333565
6	9	4.544840932843895	0.2737832593980569	0.3762038665200283
6	10	4.260974683586055	0.2543577485929063	0.4299526440587229
========================================================

FILE 2 - SUMMARY
========================================================
1.1368683772161603E-13 
7	3.9081783832512675	0.2737832593980569	0.4299526440587229
7	8.943392642619488	0.2145382088786999	0.06954287960777897
-	5.66708154635913	0.24813949556264	0.2852144966088416
-	1.715060350863664	0.019396614006760605	0.10781547785694898
========================================================


FILE 1 - POR EXECUÇÃO
========================================================
#GROUPS	EXECUTION	DB	RAND	SILLHOUETTE
7	1	7.5924043860994805	0.22097651716378042	0.15494635950328037
7	2	4.4264076683787135	0.2658949622255118	0.2964292481506816
7	3	4.304312810657832	0.25466242840769326	0.31791799614610516
7	4	4.8116371838056535	0.2607462994910147	0.1833929771778924
7	5	3.719723688687581	0.19796973327051837	0.43090602155260577
7	6	11.663735143659068	0.2388351900597981	0.16232021044610387
7	7	4.22283852457892	0.24939123908267494	0.3613013672665999
7	8	4.565507979236723	0.2292390636712957	0.34623394628284754
7	9	4.889302797325503	0.2631390311105551	0.28930333418391413
7	10	3.240828577617004	0.19983558393169087	0.44934707613230596
========================================================

FILE 2 - SUMMARY
========================================================
0.0 
8	3.240828577617004	0.2658949622255118	0.44934707613230596
8	11.663735143659068	0.19796973327051837	0.15494635950328037
-	5.343669876004649	0.23806900484145332	0.29920985368423364
-	2.501824107422218	0.02530050196868952	0.10507766021814066
========================================================


FILE 1 - POR EXECUÇÃO
========================================================
#GROUPS	EXECUTION	DB	RAND	SILLHOUETTE
8	1	4.865524820669436	0.1993005378374009	0.3201660121285309
8	2	4.446377949880914	0.2301227407555338	0.2345870155264375
8	3	4.295157993076549	0.2143747293883346	0.3311745458770874
8	4	5.886668426000605	0.23771277337543925	0.30028449611663466
8	5	10.009692171377882	0.2285814699520302	0.06838545689295325
8	6	4.534935010459741	0.23360810859660103	0.36909620944257515
8	7	4.7405099032542175	0.2744224556686768	0.45569603604122005
8	8	4.333879445107716	0.19659354843630183	0.2944414092889612
8	9	3.984069180501232	0.27031610786872307	0.35659598292010736
8	10	4.506775380879457	0.2176369770909348	0.18600845466295146
========================================================

FILE 2 - SUMMARY
========================================================
1.7053025658242404E-13 
9	3.984069180501232	0.2744224556686768	0.45569603604122005
8	10.009692171377882	0.19659354843630183	0.06838545689295325
-	5.160359028120775	0.23026694489699762	0.2916435618897459
-	1.777956151095347	0.026093857385731313	0.10741822380633245
========================================================


FILE 1 - POR EXECUÇÃO
========================================================
#GROUPS	EXECUTION	DB	RAND	SILLHOUETTE
9	1	3.3218231347555687	0.2785848409251024	0.3195171318477878
9	2	3.5372237185326596	0.20531952906068687	0.3447360307132926
9	3	3.5574559445406697	0.22910227577780795	0.35050195088016683
9	4	4.566931442757232	0.18842081455537385	0.23296512687019985
9	5	3.9822187561468882	0.2380732355269694	0.3609338519033716
9	6	4.414815094804638	0.22452801900286987	0.2865657597800612
9	7	4.303388992501753	0.2565308908252332	0.42432134780495695
9	8	3.5088893425146517	0.27619226040576794	0.4240524812072326
9	9	3.005712587537544	0.2365454632565738	0.43358963645807497
9	10	10.625540347395717	0.1830638238067628	0.07378194996795753
========================================================

FILE 2 - SUMMARY
========================================================
0.0 
9	3.005712587537544	0.2785848409251024	0.43358963645807497
10	10.625540347395717	0.1830638238067628	0.07378194996795753
-	4.482399936148733	0.2316361153143148	0.3250965267433102
-	2.217512618348545	0.033084166695585344	0.10897860210614241
========================================================


Base: breast-cancer (2 grupos)
FILE 1 - POR EXECUÇÃO
========================================================
#GROUPS	EXECUTION	DB	RAND	SILLHOUETTE
2	1	Infinity	0.006657764380515672	-3.445700282827628E-4
2	2	14.318606117943867	-0.015622902599934629	-0.024087260965969377
2	3	9.951471542736604	0.08410439675269515	-0.013798558477406525
2	4	11.9965982484948	0.046036564755036535	-0.0048327119144006185
2	5	6.068798391151333	0.049941534584428904	0.0372995447665446
2	6	10.958837625504293	0.04836131540848289	-0.03494134422258351
2	7	10.245359888798586	0.005664037352076399	-0.015289294951579357
2	8	19.967251002965288	-0.019042011517093022	-0.030952325960065644
2	9	11.663107103306439	0.05411345438576625	0.0010711440031916208
2	10	19.340823293428155	0.022192362005953852	-0.01268702108209774
========================================================

FILE 2 - SUMMARY
========================================================
0.0 
3	6.068798391151333	0.08410439675269515	0.0372995447665446
3	Infinity	-0.019042011517093022	-0.03494134422258351
-	Infinity	0.0282406515507928	-0.009856239883264933
-	NaN	0.03358966749700301	0.02051743430793735
========================================================


FILE 1 - POR EXECUÇÃO
========================================================
#GROUPS	EXECUTION	DB	RAND	SILLHOUETTE
3	1	17.866441457981445	0.087446108615199	-0.037852230768195855
3	2	10.610561883713023	0.07653464251584895	0.08131332407880264
3	3	10.233008299567716	0.04186814594704402	-0.02853360438908094
3	4	14.53874591003435	0.023094061129038255	-0.03401877667088054
3	5	6.874314870011591	0.01611324609809429	0.023681538154878414
3	6	11.507825203252033	0.05743573137968199	-6.878409397784845E-4
3	7	12.807563025210083	0.028689599976469658	-0.011312243929031155
3	8	9.564469423733609	0.04445946560048958	-0.02132790663483172
3	9	14.823841036755635	0.047348737336654824	-0.02258298053183533
3	10	12.85984545996526	0.008910758792654695	-0.04019608456571577
========================================================

FILE 2 - SUMMARY
========================================================
0.0 
4	6.874314870011591	0.087446108615199	0.08131332407880264
4	17.866441457981445	0.008910758792654695	-0.04019608456571577
-	12.168661657022474	0.04319004973911753	-0.009151680619566876
-	3.1169957099812344	0.025421750253658237	0.03719081468686146
========================================================


FILE 1 - POR EXECUÇÃO
========================================================
#GROUPS	EXECUTION	DB	RAND	SILLHOUETTE
4	1	19.051963951922126	-0.011319685227726283	-0.07432365127311331
4	2	9.173956043956045	0.03162165436072823	-0.0328743679637581
4	3	10.415075326675538	-0.014957942975565955	-0.03419744359179564
4	4	9.779493774117835	0.05405443485437937	-0.05035274509211365
4	5	Infinity	0.0413789974531529	-0.05810188699276035
4	6	13.648754167517183	0.0439891639686669	0.0026321204716367964
4	7	12.910108317214702	0.020032139002404838	-0.04522682989876309
4	8	10.518775928297055	0.038142118684607006	-0.014757336302846416
4	9	8.81781488605655	0.048146294663755765	-0.026683542527351323
4	10	7.8654758637420175	0.0470059430879517	0.009574270700332118
========================================================

FILE 2 - SUMMARY
========================================================
0.0 
5	7.8654758637420175	0.05405443485437937	0.009574270700332118
5	Infinity	-0.014957942975565955	-0.07432365127311331
-	Infinity	0.02980931178723545	-0.0324311412470533
-	NaN	0.024537354186931256	0.026334355712731346
========================================================


FILE 1 - POR EXECUÇÃO
========================================================
#GROUPS	EXECUTION	DB	RAND	SILLHOUETTE
5	1	24.23101583284497	0.02418899779551299	-0.06180086510868327
5	2	Infinity	0.010793656364476925	-0.06619287507771669
5	3	8.498519651644651	0.026104269004648163	-0.05453456120500377
5	4	16.78458703169377	0.032839766814352765	-0.0624653765745559
5	5	16.098516808861635	0.0016951853270304673	-0.04992812551823647
5	6	17.83972152961751	-0.00330257114920924	-0.04427342283440475
5	7	Infinity	0.019845752849165874	-0.051895580336590565
5	8	15.057139999969555	0.046631884833387656	-0.0450283228610383
5	9	Infinity	0.038547688885904687	-0.055570777563692976
5	10	Infinity	0.04806952441474623	-0.06812413367764797
========================================================

FILE 2 - SUMMARY
========================================================
0.0 
6	8.498519651644651	0.04806952441474623	-0.04427342283440475
6	Infinity	-0.00330257114920924	-0.06812413367764797
-	Infinity	0.02454141551400165	-0.055981404075757066
-	NaN	0.01769323077432752	0.008434538559986179
========================================================


Base: proteina_mod (5 grupos)
FILE 1 - POR EXECUÇÃO
========================================================
#GROUPS	EXECUTION	DB	RAND	SILLHOUETTE
3	1	35.16885216264873	0.11026617556421882	0.07408641133679422
3	2	32.48687700226295	0.1393304877657273	0.0315007225139408
3	3	35.65823427110493	0.12287976062194532	0.16226433067193224
3	4	33.48460441273152	0.10085545547497494	0.0349303152468475
3	5	32.57392383775671	0.099562617216853	0.28853422824877023
3	6	36.9330984890008	0.08132372226992869	0.0677675551369527
3	7	32.08246275084193	0.09384290179511504	0.28646889643591356
3	8	35.2080993392844	0.09368379899619834	0.14433509680973886
3	9	31.728648786832178	0.10101298018315556	0.2963212801699233
3	10	32.600336039312026	0.10823367634298516	0.14278319179042712
========================================================

FILE 2 - SUMMARY
========================================================
0.0 
4	31.728648786832178	0.1393304877657273	0.2963212801699233
4	36.9330984890008	0.08132372226992869	0.0315007225139408
-	33.792513709177626	0.10509915762311021	0.15289920283612407
-	1.7991335292132191	0.016371049162356408	0.10497835843223514
========================================================


FILE 1 - POR EXECUÇÃO
========================================================
#GROUPS	EXECUTION	DB	RAND	SILLHOUETTE
4	1	31.490729553424302	0.13664955647607485	0.22877236497067405
4	2	33.44792891909267	0.0925326374834295	0.23978059471726615
4	3	30.851061352158847	0.13362558484380496	0.05170642237479075
4	4	38.05737812700163	0.09128947074762708	0.016224341033902388
4	5	36.01792002323129	0.11647212163584972	0.03183939035652969
4	6	34.0049347113618	0.12466722975507584	0.014369676056327945
4	7	33.159626513536494	0.19612512575484753	0.23124144411656644
4	8	30.91520852843662	0.17095834614739758	0.25541178813560855
4	9	32.60550445545465	0.16426652720354856	0.24365242149778385
4	10	33.53763259162032	0.15989631054693004	0.23921886950462645
========================================================

FILE 2 - SUMMARY
========================================================
9.094947017729282E-13 
5	30.851061352158847	0.19612512575484753	0.25541178813560855
5	38.05737812700163	0.09128947074762708	0.014369676056327945
-	33.40879247753186	0.13864829105945858	0.15522173127640762
-	2.2592201755607255	0.03422358671848474	0.10972219704648106
========================================================


FILE 1 - POR EXECUÇÃO
========================================================
#GROUPS	EXECUTION	DB	RAND	SILLHOUETTE
5	1	31.84298218326246	0.18442609726292417	0.20684459599544602
5	2	32.08040468960203	0.18851461035762815	0.03771396257815237
5	3	34.19099313874587	0.18291255902506745	0.18782780335760688
5	4	33.833717007736205	0.19146751427078748	0.04632368093150608
5	5	33.61535316329464	0.17494448181406214	0.021455573773733038
5	6	31.23945996899734	0.15499566102488918	0.1973523780714358
5	7	32.238768610893366	0.12754931563411345	0.06653977642917722
5	8	32.20253497812837	0.13485881420453502	0.06889225161853448
5	9	33.14803087821718	0.11365995946517035	0.1403840884388901
5	10	32.094743330293326	0.15303893556830522	0.1961064407975307
========================================================

FILE 2 - SUMMARY
========================================================
0.0 
6	31.23945996899734	0.19146751427078748	0.20684459599544602
6	34.19099313874587	0.11365995946517035	0.021455573773733038
-	32.64869879491708	0.16063679486274826	0.11694405519920129
-	0.9774545335216892	0.027988519132175465	0.0757338115423106
========================================================


FILE 1 - POR EXECUÇÃO
========================================================
#GROUPS	EXECUTION	DB	RAND	SILLHOUETTE
6	1	30.934990141419313	0.1847404696932175	-0.1205342883411806
6	2	32.863619185200044	0.1800089606609647	0.021159740168291787
6	3	29.529600467346906	0.22219697271305774	0.044166816667294294
6	4	30.543435156265463	0.19569287632554141	0.16382367967286915
6	5	29.309747989952314	0.18940616173254982	0.18249919419377933
6	6	31.612038027489227	0.16056852008007413	0.038902487626395525
6	7	31.253922087627473	0.14605076176836182	0.019998035936472622
6	8	32.80212332119064	0.17307912868707082	0.01107013031312539
6	9	32.67261223962121	0.22805327855044547	0.01243888622284729
6	10	29.42520572677146	0.21758221472906056	0.1768781429835136
========================================================

FILE 2 - SUMMARY
========================================================
0.0 
7	29.309747989952314	0.22805327855044547	0.18249919419377933
7	32.863619185200044	0.14605076176836182	-0.1205342883411806
-	31.094729434288404	0.18973793449403437	0.05504028254434083
-	1.3975919105997463	0.026851644465809045	0.09443002110175726
========================================================


FILE 1 - POR EXECUÇÃO
========================================================
#GROUPS	EXECUTION	DB	RAND	SILLHOUETTE
7	1	28.841611967628353	0.18455480757819068	0.17777905265501026
7	2	28.19619669354409	0.21506806852553081	0.16553572880219994
7	3	30.762473714858377	0.1876061200881237	0.02754971770170646
7	4	28.403753597312022	0.20387833698087593	0.18386266335713078
7	5	33.45440506269989	0.1634308004961564	-0.09574313064387183
7	6	31.174013722601376	0.2083510021729686	0.16584743778739464
7	7	29.970073656991133	0.14254708165124558	0.14368360235009417
7	8	30.629218046540565	0.17391107288903584	0.022127299365874972
7	9	32.38140327112941	0.1547487298957949	0.12228198046844903
7	10	31.380918512593837	0.19501841657432975	0.03715974740142787
========================================================

FILE 2 - SUMMARY
========================================================
0.0 
8	28.19619669354409	0.21506806852553081	0.18386266335713078
8	33.45440506269989	0.14254708165124558	-0.09574313064387183
-	30.519406824589908	0.18291144368522522	0.09500840992454163
-	1.7098783070373784	0.023979324426395797	0.09276397747521316
========================================================


Base: solar-flare (6 grupos)
FILE 1 - POR EXECUÇÃO
========================================================
#GROUPS	EXECUTION	DB	RAND	SILLHOUETTE
4	1	Infinity	0.011106917038007362	-0.0673928782068332
4	2	Infinity	0.003063894278146186	-0.11703039527103579
4	3	8.58035418735518	0.0062367416014230655	0.010010266583553855
4	4	5.535963718820861	0.0348235663468177	0.12425298876478937
4	5	4.606200396825397	0.0053896630750642745	0.3186772646924917
4	6	4.1701685394539165	0.0358112967614302	0.27393713075747045
4	7	10.063063707945599	0.023686797077941735	0.09496066890133131
4	8	Infinity	0.0751613297560933	0.021944013685675126
4	9	6.834738192352101	0.014468138374889429	0.018283951622946853
4	10	3.4299725331674957	0.01495051211918379	0.21730918956850456
========================================================

FILE 2 - SUMMARY
========================================================
0.0 
4	3.4299725331674957	0.0751613297560933	0.3186772646924917
4	Infinity	0.003063894278146186	-0.11703039527103579
-	Infinity	0.022469885642899704	0.08949522010988943
-	NaN	0.021832705578953983	0.14427457836107618
========================================================


FILE 1 - POR EXECUÇÃO
========================================================
#GROUPS	EXECUTION	DB	RAND	SILLHOUETTE
5	1	4.55441384180791	0.04058789157734227	0.3353962495293291
5	2	2.068229166666667	-0.0015619103380921872	0.47344727379936913
5	3	Infinity	0.057768724234484606	-0.10062498378642815
5	4	-Infinity	0.0	-0.6518480770290862
5	5	Infinity	0.043681023204937025	7.2058060903852E-4
5	6	6.236304453767268	0.004586770527574101	0.13535537972480663
5	7	6.965032679738561	0.01494234982935868	0.19339567933607477
5	8	Infinity	0.08954762747947152	0.05596725854300438
5	9	Infinity	0.09751596022394363	0.04242142778280921
5	10	9.347403141877727	0.0415486977011311	-0.02442164442226028
========================================================

FILE 2 - SUMMARY
========================================================
0.0 
5	-Infinity	0.09751596022394363	0.47344727379936913
2	Infinity	-0.0015619103380921872	-0.6518480770290862
-	NaN	0.03886171344401508	0.04598091440866571
-	NaN	0.03542047857920076	0.3003301217696069
========================================================


FILE 1 - POR EXECUÇÃO
========================================================
#GROUPS	EXECUTION	DB	RAND	SILLHOUETTE
6	1	Infinity	0.03579899672509065	-0.03492088869504097
6	2	6.426530311405934	0.043204455955758905	0.04317770835874911
6	3	8.49875241551063	0.06839410073831442	0.019692963861172263
6	4	-Infinity	0.0	-0.6518480770290862
6	5	Infinity	0.0311125554769752	-0.08883009459003122
6	6	Infinity	0.04704996428212227	0.030149430807600443
6	7	Infinity	0.03536470540070737	-0.09119513513806506
6	8	4.264923747276689	-4.884999872763103E-4	0.17456840043794128
6	9	14.115136530818942	0.023497779110291453	-0.03208357014070277
6	10	Infinity	0.020100502199577014	-0.07186644696007428
========================================================

FILE 2 - SUMMARY
========================================================
0.0 
5	-Infinity	0.06839410073831442	0.17456840043794128
1	Infinity	-4.884999872763103E-4	-0.6518480770290862
-	NaN	0.0304034559901561	-0.07031557090875373
-	NaN	0.021005321851245637	0.21927134657393638
========================================================


FILE 1 - POR EXECUÇÃO
========================================================
#GROUPS	EXECUTION	DB	RAND	SILLHOUETTE
7	1	-Infinity	0.0	-0.6518480770290862
7	2	7.118803466895879	0.1387436302447922	0.026973553781992482
7	3	Infinity	0.05973760226994814	-0.021884153495475834
7	4	8.807408380018673	0.003940519526662686	0.21947343720165322
7	5	4.413654279279279	0.017390039549372033	0.3441141917400494
7	6	3.0138906217508836	0.04135380369232701	0.2675070525526298
7	7	Infinity	0.04547089237518127	-0.1268085793819764
7	8	Infinity	0.045592833037429205	0.03172936888519802
7	9	Infinity	0.040977765152972245	-0.08541276087905904
7	10	Infinity	0.03561009418752517	-0.06632418199843197
========================================================

FILE 2 - SUMMARY
========================================================
178.55347737539205 
6	-Infinity	0.1387436302447922	0.3441141917400494
4	Infinity	0.0	-0.6518480770290862
-	NaN	0.04288171800362099	-0.006248014862250633
-	NaN	0.038803781948110315	0.27741798040342885
========================================================


FILE 1 - POR EXECUÇÃO
========================================================
#GROUPS	EXECUTION	DB	RAND	SILLHOUETTE
8	1	Infinity	0.0200817023993484	-0.011795860483976538
8	2	Infinity	0.019141087883904798	-0.006644822647026389
8	3	7.55080657104172	0.04472402024170432	0.06447671847454105
8	4	Infinity	0.17686699782637116	0.05018442161409333
8	5	-Infinity	0.0	-0.6518480770290862
8	6	Infinity	0.054847467031239	-0.0751601867039054
8	7	3.254062288422478	0.07136452457227188	0.22678149070342524
8	8	Infinity	0.15174820848212747	0.030211740220777366
8	9	7.035094246031747	0.028621977383205738	-0.03713206332494099
8	10	6.725703538898592	0.08426497499346584	0.03669961199225748
========================================================

FILE 2 - SUMMARY
========================================================
0.0 
7	-Infinity	0.17686699782637116	0.22678149070342524
1	Infinity	0.0	-0.6518480770290862
-	NaN	0.06516609608136387	-0.037422702718384104
-	NaN	0.058341990332057	0.2305735956780002
========================================================


Base: ecoli_mod (5 grupos)
FILE 1 - POR EXECUÇÃO
========================================================
#GROUPS	EXECUTION	DB	RAND	SILLHOUETTE
3	1	0.492186611269373	0.661638602675348	0.362789975498227
3	2	0.38537400418829315	0.6430447954842194	0.5498370671198063
3	3	0.4304923393802662	0.659605624781955	0.5458050054301885
3	4	0.5201889018789453	0.6667859625204547	0.35354480669926647
3	5	0.4826260888105287	0.661671251963448	0.35987164758730705
3	6	0.5957435521839698	0.6625367642377805	0.2958188586961679
3	7	0.4190113982282548	0.6522345119822779	0.48765868126777034
3	8	0.4208314978485138	0.6402914275642434	0.3524868087287856
3	9	0.6628405691683759	0.6611845048701128	0.19365417405760157
3	10	0.45720152512742285	0.6061084077191253	0.3214071739553769
========================================================

FILE 2 - SUMMARY
========================================================
0.0 
4	0.38537400418829315	0.6667859625204547	0.5498370671198063
4	0.6628405691683759	0.6061084077191253	0.19365417405760157
-	0.48664964880839434	0.6515101853798966	0.38228741990404974
-	0.08647478898947666	0.018194214382879492	0.11317466200017075
========================================================


FILE 1 - POR EXECUÇÃO
========================================================
#GROUPS	EXECUTION	DB	RAND	SILLHOUETTE
4	1	0.5031425708171701	0.5058690066164142	0.20508080872174408
4	2	0.4169348300853007	0.4944689487792468	0.4338489547272957
4	3	0.39602759555854067	0.4620626976114792	0.34101335525864196
4	4	0.3929329559259304	0.47758558755076097	0.3231258698817955
4	5	0.5150083284275556	0.41145031320165776	0.18310484317664233
4	6	0.4151826472490409	0.48059829980710866	0.4357219995325208
4	7	1.3945446892180435	0.46913155646560484	0.1576404086258635
4	8	0.4668980069147944	0.515315843199432	0.284750493667426
4	9	0.4554468803782277	0.5128424048105149	0.3096680293125374
4	10	1.6297409028237986	0.4643587995375005	0.12018053495761416
========================================================

FILE 2 - SUMMARY
========================================================
1.4210854715202004E-14 
5	0.3929329559259304	0.515315843199432	0.4357219995325208
5	1.6297409028237986	0.41145031320165776	0.12018053495761416
-	0.6585859407398403	0.47936834575797205	0.2794135297862081
-	0.45518164496268804	0.030894376313024885	0.11051210064845834
========================================================


FILE 1 - POR EXECUÇÃO
========================================================
#GROUPS	EXECUTION	DB	RAND	SILLHOUETTE
5	1	0.4267859556910727	0.4259087504615777	0.39573549285420767
5	2	0.4342735260207348	0.45411641232760297	0.3721802290329433
5	3	0.43798938647713087	0.5217284416901616	0.418990583820321
5	4	0.4134557130158707	0.5151875910134038	0.423636308464503
5	5	0.4433146744055188	0.4802927771016332	0.3652948498609286
5	6	0.43457254000634565	0.4843461063371456	0.4047285946055214
5	7	0.40103979112544974	0.5114427789876509	0.4373227503551311
5	8	0.46218819904989	0.4476347570292563	0.3452416372042593
5	9	0.3978948409646558	0.5251688541597659	0.43675097125759993
5	10	0.8945906157616247	0.3579151858763486	0.1266923978308607
========================================================

FILE 2 - SUMMARY
========================================================
2.8421709430404007E-14 
6	0.3978948409646558	0.5251688541597659	0.4373227503551311
6	0.8945906157616247	0.3579151858763486	0.1266923978308607
-	0.47461052425182937	0.4723741654984546	0.37265738152862754
-	0.1488523847890741	0.05269806887000279	0.09183391259096992
========================================================


FILE 1 - POR EXECUÇÃO
========================================================
#GROUPS	EXECUTION	DB	RAND	SILLHOUETTE
6	1	0.4577422549141933	0.48119913761424654	0.24349390506560215
6	2	0.46692512442206785	0.43944090940843344	0.35249830241324187
6	3	0.5130757338356843	0.4491277724377515	0.2796002348510735
6	4	0.4783460763656269	0.5045480198643996	0.3640130758366909
6	5	0.4906358994879256	0.41779809010780494	0.35879541916387103
6	6	0.4444082992735484	0.35947721681450284	0.24824911380742037
6	7	1.0595244851327088	0.26388303267195323	0.20853047102825722
6	8	1.3935293090986354	0.4377147128299086	0.11453203012330174
6	9	0.3993401922835124	0.4257457451772611	0.382410545480051
6	10	0.41136244600844435	0.43375294250953633	0.3602143250572482
========================================================

FILE 2 - SUMMARY
========================================================
4.263256414560601E-14 
7	0.3993401922835124	0.5045480198643996	0.382410545480051
5	1.3935293090986354	0.26388303267195323	0.11453203012330174
-	0.6114889820822348	0.4212687579435797	0.2912337422826758
-	0.33530268456649776	0.06723120304978601	0.08756694146564907
========================================================


FILE 1 - POR EXECUÇÃO
========================================================
#GROUPS	EXECUTION	DB	RAND	SILLHOUETTE
7	1	0.5111895730457989	0.39382717496181535	0.1915073298254863
7	2	0.4100730537650267	0.45794999700591976	0.22553900153746445
7	3	0.41546489615987336	0.4502141205642851	0.37147516690289556
7	4	0.3193682087246699	0.4475995335996801	0.39524631866391086
7	5	0.5287046402938238	0.4544070034384331	0.22676428596037165
7	6	0.4554388315728448	0.4069404429468209	0.274922627719469
7	7	0.4987210384449077	0.37222974181217594	0.2390317113551479
7	8	0.3394039059221091	0.42761316396003163	0.36374209591115386
7	9	0.44081481532974864	0.37570483609464933	0.3154044402900248
7	10	0.342562567048777	0.42762891087887356	0.33821085185526223
========================================================

FILE 2 - SUMMARY
========================================================
0.0 
8	0.3193682087246699	0.45794999700591976	0.39524631866391086
8	0.5287046402938238	0.37222974181217594	0.1915073298254863
-	0.426174153030758	0.42141149252626847	0.2941843830021187
-	0.07481485284641676	0.03247997133885505	0.07197788539140966
========================================================


Base: segment_mod (7 grupos)
FILE 1 - POR EXECUÇÃO
========================================================
#GROUPS	EXECUTION	DB	RAND	SILLHOUETTE
5	1	195.55083276991513	0.29507225134549026	0.5040087072284388
5	2	389.1327332126428	0.33859134206581404	0.405227170222182
5	3	321.4077016126072	0.31652504702744116	0.49880942117583243
5	4	67.53747523190384	0.295580189403068	0.6534406793642572
5	5	207.17863316885928	0.2940277550206397	0.48303318735447287
5	6	1026.7318161779533	0.2838290619473996	0.10966594932432748
5	7	206.78694192560613	0.29200740768719263	0.3596234804219498
5	8	335.09947918529116	0.31763902157285584	0.4879610089215376
5	9	191.64681669861736	0.4222683242013203	0.46105234666493167
5	10	130.80599363558733	0.4209609073964186	0.586724388681218
========================================================

FILE 2 - SUMMARY
========================================================
0.0 
6	67.53747523190384	0.4222683242013203	0.6534406793642572
4	1026.7318161779533	0.2838290619473996	0.10966594932432748
-	307.18784236189833	0.32765013076676397	0.45495463393591484
-	270.77611652808145	0.05208343388012499	0.14673848855727664
========================================================


FILE 1 - POR EXECUÇÃO
========================================================
#GROUPS	EXECUTION	DB	RAND	SILLHOUETTE
6	1	195.0160059904768	0.36192840794033343	0.35788859094336767
6	2	195.68404426812853	0.31043848532416213	0.2878552207161866
6	3	201.06724791048995	0.4203522388359367	0.5162079414374697
6	4	199.13003126228452	0.31005870306904276	0.46437380189057736
6	5	218.5379638357741	0.4126894263721244	0.5655857022338956
6	6	189.0665992413789	0.41438815384724537	0.4891964133626974
6	7	188.00164042415057	0.4137688682365762	0.2872902370369273
6	8	64.7662869793224	0.42392931028915826	0.652356365998266
6	9	217.75890013634788	0.3640282313140576	0.4705787671427893
6	10	193.64283996205862	0.4241034130566417	0.4324097410122415
========================================================

FILE 2 - SUMMARY
========================================================
0.0 
7	64.7662869793224	0.4241034130566417	0.652356365998266
7	218.5379638357741	0.31005870306904276	0.2872902370369273
-	186.2671560010412	0.3855685238285278	0.4523742781774419
-	43.98302530379991	0.045821954111003926	0.11660048071286093
========================================================


FILE 1 - POR EXECUÇÃO
========================================================
#GROUPS	EXECUTION	DB	RAND	SILLHOUETTE
7	1	562.4014696156678	0.4188950684677072	0.4270949770878426
7	2	513.6003980627897	0.31728200163796	0.2241593330105426
7	3	87.69925946806804	0.3332573008274032	0.5578893066089061
7	4	192.14298014387737	0.5317166274342606	0.3958698911071152
7	5	193.7551784537011	0.4444055817997642	0.4810361010833176
7	6	62.5535234144602	0.4221890295948813	0.6534989724892333
7	7	200.50758992378348	0.4479732073862806	0.47100936142672295
7	8	187.58379003388072	0.4355031674894877	0.3506811918191653
7	9	201.16977080266315	0.42085727516877647	0.5137039307577356
7	10	66.83182000633431	0.444134335899246	0.6069826698835377
========================================================

FILE 2 - SUMMARY
========================================================
3.637978807091713E-12 
7	62.5535234144602	0.5317166274342606	0.6534989724892333
7	562.4014696156678	0.31728200163796	0.2241593330105426
-	226.82457799252262	0.4216213595705767	0.46819257352741184
-	173.83827997146614	0.06031150120177464	0.12656643426062877
========================================================


FILE 1 - POR EXECUÇÃO
========================================================
#GROUPS	EXECUTION	DB	RAND	SILLHOUETTE
8	1	186.62035573220484	0.4379223635460205	0.4371593137680087
8	2	66.83182000633433	0.444134335899246	0.6069826698835377
8	3	1009.4335633608134	0.46450259440284264	0.3674350322125259
8	4	70.74380743947212	0.4518869603510585	0.5632285040545885
8	5	195.14636837946446	0.49784907103950526	0.4680844039459972
8	6	191.00815554866068	0.45233283729009705	0.44517842570359295
8	7	193.0491076429914	0.46048603044351283	0.3710269185866346
8	8	70.82145188333547	0.4548134464730968	0.5700839713466501
8	9	191.28624366062766	0.44556768195243235	0.3613205925463174
8	10	65.38027154238898	0.4480475109812983	0.5836305344359999
========================================================

FILE 2 - SUMMARY
========================================================
3.637978807091713E-12 
9	65.38027154238898	0.49784907103950526	0.6069826698835377
9	1009.4335633608134	0.4379223635460205	0.3613205925463174
-	224.03211451962935	0.455754283237911	0.47741303664838525
-	282.65908689033796	0.016715272167945498	0.096413301391614
========================================================


FILE 1 - POR EXECUÇÃO
========================================================
#GROUPS	EXECUTION	DB	RAND	SILLHOUETTE
9	1	1017.9323608099743	0.44459218964822833	0.22287010703237098
9	2	1090.1060349554186	0.4683822118698598	0.1723591793547353
9	3	191.8320770504842	0.4440781064340518	0.3346914365660165
9	4	194.73810659790888	0.4849369643058392	0.37931704909682384
9	5	196.9476618390903	0.5029978353098651	0.4653724939608241
9	6	197.3981521715251	0.5015764809713031	0.389110461083989
9	7	192.6271391174347	0.4504480755046158	0.32091806901719055
9	8	190.6495426903702	0.4591152964479372	0.42630218973841894
9	9	190.5000325174867	0.5022938541564315	0.4165213519672058
9	10	422.1825331786117	0.4863754270714926	0.3101860108733074
========================================================

FILE 2 - SUMMARY
========================================================
7.275957614183426E-12 
9	190.5000325174867	0.5029978353098651	0.4653724939608241
10	1090.1060349554186	0.4440781064340518	0.1723591793547353
-	388.49136409283045	0.4744796441719624	0.34376483486908826
-	358.34802502868894	0.02412995568342868	0.09185847017182881
========================================================


Base: ionosphere (2 grupos)
FILE 1 - POR EXECUÇÃO
========================================================
#GROUPS	EXECUTION	DB	RAND	SILLHOUETTE
2	1	18.510680128508316	0.11540466571093444	0.5156243354768312
2	2	18.15658650437245	0.1277093642342625	0.5201878400304922
2	3	43.03308244487161	0.08504999337422142	0.0793636953423877
2	4	23.759778742929953	0.12706894304704808	0.15049912121945136
2	5	18.038859646613727	0.110700533082471	0.5168325114183986
2	6	21.139350379146347	0.12296597725803464	0.27149502634286843
2	7	27.219831885384227	0.11734538158638672	0.18054997236096068
2	8	19.646364047294757	0.12732454524262504	0.5035626414177584
2	9	29.098424422485063	0.12933954751628227	0.2330365583623509
2	10	18.005249464207065	0.110700533082471	0.518070935354223
========================================================

FILE 2 - SUMMARY
========================================================
0.0 
3	18.005249464207065	0.12933954751628227	0.5201878400304922
3	43.03308244487161	0.08504999337422142	0.0793636953423877
-	23.66082076658135	0.11736094841347369	0.3489222637325723
-	7.891025574363337	0.013383483523621174	0.18185693911131187
========================================================


FILE 1 - POR EXECUÇÃO
========================================================
#GROUPS	EXECUTION	DB	RAND	SILLHOUETTE
3	1	22.937513102484903	0.19101459074118396	0.43432124387280635
3	2	25.477031247652665	0.2643023448166885	0.4337778157605185
3	3	22.10227189589351	0.19678694043573014	0.4425350954162091
3	4	22.798550163449327	0.20214637709412428	0.42895142657381313
3	5	40.22394243673751	0.1535809542625704	0.09764304548736716
3	6	24.651323818449576	0.18967877856418633	0.1918577499636287
3	7	29.776944423843407	0.25303322762994623	0.14674472035556263
3	8	22.800453896408747	0.19631372103981584	0.4367253332239609
3	9	25.101076043816708	0.23092308414981177	0.42004146259405184
3	10	22.198246587158508	0.18602042404730196	0.44521514843143706
========================================================

FILE 2 - SUMMARY
========================================================
2.4556356947869062E-11 
4	22.10227189589351	0.2643023448166885	0.44521514843143706
4	40.22394243673751	0.1535809542625704	0.09764304548736716
-	25.80673536158949	0.20638004427813597	0.3477813041679355
-	5.564007739884378	0.03343724328521677	0.14156834507613977
========================================================


FILE 1 - POR EXECUÇÃO
========================================================
#GROUPS	EXECUTION	DB	RAND	SILLHOUETTE
4	1	19.045627029882407	0.2155043356177306	0.4356786257205922
4	2	19.86044249773755	0.21805563712534995	0.4206713884645851
4	3	18.573722229575534	0.230242801231796	0.4431434487869607
4	4	19.649532463098502	0.21777398023263497	0.4270622284429928
4	5	19.345156350851116	0.21886810963271813	0.43227168333379656
4	6	19.79744861738418	0.2153507215157338	0.4222065780327043
4	7	21.563408011143867	0.21683911265955025	0.22350804711334846
4	8	20.252008651049483	0.22398128022871014	0.42565673143434857
4	9	20.208128001641178	0.21310757196388408	0.4186958971985736
4	10	18.826008758079688	0.21669236822943613	0.4364293495554937
========================================================

FILE 2 - SUMMARY
========================================================
1.3642420526593924E-12 
5	18.573722229575534	0.230242801231796	0.4431434487869607
5	21.563408011143867	0.21310757196388408	0.22350804711334846
-	19.71214826104435	0.2186415918437544	0.4085323978083396
-	0.8601024833817603	0.004973191670732398	0.06547678038659868
========================================================


FILE 1 - POR EXECUÇÃO
========================================================
#GROUPS	EXECUTION	DB	RAND	SILLHOUETTE
5	1	22.10641179386184	0.1763602703086594	0.3218422328659582
5	2	19.887213085006437	0.19611028163739735	0.22992422651760505
5	3	19.362407175145204	0.20192349769287243	0.22056191034646344
5	4	20.314796888016545	0.20302004826026385	0.3749708502913425
5	5	21.649401588041872	0.18334032599548428	0.1724948617340524
5	6	23.035551219763914	0.1565081846961625	0.3069197529291808
5	7	19.12623191760867	0.1739837555318543	0.33681514684271835
5	8	24.62804613263654	0.16986786770883233	0.15417991964092145
5	9	17.781269062119225	0.18727276706785312	0.3896616347094383
5	10	22.83504704167753	0.16530084599759529	0.3359797953504069
========================================================

FILE 2 - SUMMARY
========================================================
4.547473508864641E-13 
6	17.781269062119225	0.20302004826026385	0.3896616347094383
6	24.62804613263654	0.1565081846961625	0.15417991964092145
-	21.072637590387778	0.18136878448969748	0.2843350331228087
-	2.1220387575969686	0.01576018966808381	0.08374755208649792
========================================================


Base: dermatology (6 grupos)
FILE 1 - POR EXECUÇÃO
========================================================
#GROUPS	EXECUTION	DB	RAND	SILLHOUETTE
4	1	35.3938621656628	0.12461281899071068	0.11324857008048198
4	2	39.74995072158729	0.026965901812956352	0.11172647176455093
4	3	50.159419861803464	0.037583825978663284	0.11912809015163975
4	4	52.5492258278325	0.02797135944687831	0.10496803284341391
4	5	101.75193949159136	0.02730017090161216	0.09314345635503682
4	6	90.85554079030445	0.034941664838349394	0.15189081730494064
4	7	31.53755703319995	0.028474431551988075	0.1473900705220587
4	8	25.14707941744451	0.03525396495100385	0.1429508595954178
4	9	31.265180399750506	0.06425961519686807	0.13049327965275853
4	10	36.06059249707962	0.11892721954478186	0.09343708221477251
========================================================

FILE 2 - SUMMARY
========================================================
2.000888343900442E-11 
5	25.14707941744451	0.12461281899071068	0.15189081730494064
5	101.75193949159136	0.026965901812956352	0.09314345635503682
-	49.447034820625646	0.0526290973213812	0.12083767304850716
-	26.189772172324254	0.038071676344429504	0.021511469759378576
========================================================


FILE 1 - POR EXECUÇÃO
========================================================
#GROUPS	EXECUTION	DB	RAND	SILLHOUETTE
5	1	35.26557931839394	0.05147341592204138	0.09872909596050629
5	2	37.52799953603786	0.06453680761177674	0.10018696113080199
5	3	28.59544050387878	0.07604856946099432	0.11084942432639693
5	4	38.80942870133552	0.02217863969439232	0.13975704235237402
5	5	27.87469066911059	0.07723148172312617	0.27908179469475947
5	6	30.08159976260397	0.07525399009898308	0.10514795618443508
5	7	36.41994174862365	0.09005241771239413	0.09036040765229035
5	8	76.75607867722712	0.01862278011819039	0.12954570356549758
5	9	41.046013029799994	0.05918554440618023	0.12813650059694143
5	10	44.00642505227899	0.04096549204820418	0.10259461743268587
========================================================

FILE 2 - SUMMARY
========================================================
0.0 
5	27.87469066911059	0.09005241771239413	0.27908179469475947
4	76.75607867722712	0.01862278011819039	0.09036040765229035
-	39.638319699929035	0.057554913879628286	0.1284389503896689
-	14.083356401614857	0.02410467639691245	0.05525023808189128
========================================================


FILE 1 - POR EXECUÇÃO
========================================================
#GROUPS	EXECUTION	DB	RAND	SILLHOUETTE
6	1	40.82887852749676	0.03287305217135457	0.1425686426036641
6	2	36.22304570651774	0.07781422499636931	0.09847986457634965
6	3	36.14835031636267	0.04564078207958772	0.1194565067853985
6	4	37.933633200172984	0.10482368589621831	0.10539559166887559
6	5	49.75771983990779	0.028482231833861366	0.09974514445235601
6	6	28.718967261457816	0.07910759710265791	0.23530915482102613
6	7	60.757745329170056	0.046522109968205286	0.08819533955514673
6	8	32.694413474083554	0.02579721431087398	0.13579977459096568
6	9	30.09458532308751	0.037475057374211584	0.1471366675536798
6	10	41.62367654372898	0.12387337457662143	0.14160367934317414
========================================================

FILE 2 - SUMMARY
========================================================
108.70730579417068 
6	28.718967261457816	0.12387337457662143	0.23530915482102613
6	60.757745329170056	0.02579721431087398	0.08819533955514673
-	39.47810155219859	0.06024093303099615	0.13136903659506366
-	9.65411637988853	0.034262260491670304	0.042248262821901805
========================================================


FILE 1 - POR EXECUÇÃO
========================================================
#GROUPS	EXECUTION	DB	RAND	SILLHOUETTE
7	1	24.384168561171382	0.15003190854547108	0.306877422819483
7	2	28.620001903709383	0.10271167770587897	0.2103251806017296
7	3	35.994138023463925	0.027687007266201075	0.09013324158926649
7	4	32.02047772611175	0.08089602684419613	0.21140551724988418
7	5	25.941906489163053	0.04788872679712112	0.28015594977771896
7	6	38.716302168715536	0.07721592615970313	0.08212204672489248
7	7	31.18542779864141	0.07015411513140461	0.20161770313713726
7	8	22.713126492746962	0.056431428551565736	0.26366434007016465
7	9	33.25672160726149	0.09592317350889557	0.1380996220265292
7	10	42.690219360528594	0.10537078088318991	0.09107673992490183
========================================================

FILE 2 - SUMMARY
========================================================
0.0 
7	22.713126492746962	0.15003190854547108	0.306877422819483
8	42.690219360528594	0.027687007266201075	0.08212204672489248
-	31.552249013151346	0.08143107713936273	0.18754777639217077
-	6.394033003546238	0.03452179455529484	0.08316749582376994
========================================================


FILE 1 - POR EXECUÇÃO
========================================================
#GROUPS	EXECUTION	DB	RAND	SILLHOUETTE
8	1	40.89919471620442	0.0444782684414892	0.14014297473663923
8	2	39.09992562503031	0.145257641887165	0.27186215197955516
8	3	73.6735568299449	0.08308092960764624	0.07458418803841242
8	4	26.03784538013228	0.07599353112553703	0.23101768871263123
8	5	30.413826937683023	0.07212311779720854	0.13658850901596387
8	6	27.832339453747018	0.14060384302565918	0.14104077160364617
8	7	45.44061077158601	0.04735878178240311	0.10947012071970404
8	8	36.62207916919263	0.08116566768231416	0.09843619539780703
8	9	27.926915601595596	0.04599150392579757	0.11215005518744027
8	10	42.178142244626706	0.12738349655134218	0.13834564639493702
========================================================

FILE 2 - SUMMARY
========================================================
0.0 
7	26.03784538013228	0.145257641887165	0.27186215197955516
7	73.6735568299449	0.0444782684414892	0.07458418803841242
-	39.01244367297429	0.08634367818265623	0.14536383017867363
-	13.953005027280048	0.03850963393183648	0.060657590994989054
========================================================


